1716398936 212.00 0.20
1716398937 407.00 0.19
1716398938 414.00 0.19
1716398939 409.00 0.19
1716398940 412.00 0.20
1716398941 411.00 0.20
1716398942 414.00 0.20
1716398943 414.00 0.21
1716398944 414.00 0.20
1716398945 409.00 0.20
1716398946 419.00 0.21
1716398947 415.00 0.20
1716398948 413.00 0.19
1716398949 417.00 0.20
1716398950 416.00 0.19
1716398951 226.00 0.20
1716398952 0.00 0.20
