1716397498 263.00 0.38   
1716397499 449.00 0.38
1716397500 442.00 0.38
1716397501 453.00 0.38
1716397502 456.00 0.38
1716397503 455.00 0.38
1716397504 457.00 0.38
1716397505 451.00 0.38
1716397506 450.00 0.38
1716397507 450.00 0.38
1716397508 455.00 0.38
1716397509 461.00 0.38
1716397510 456.00 0.38
1716397511 456.00 0.38
1716397512 453.00 0.38
1716397513 192.00 0.38
1716397514 0.00 0.38
